"Type"	"Titre"	"Satut Maquette"	"Statut technique"	"En tant que"	"Je veux"	"Afin de"	"Valeur"	"Risque"	"Estimé Points SCRUM"	"Réalisé Points SCRUM"
"User story"	"Création parcelle"	"À faire"	"À faire"	"Agriculteur"	"pouvoir déclarer qu'une parcelle m'appartient (et modifier si je me suis trompé)"	"d'avoir la liste de mes parcelles pour les sélectionner ultérieurement"	"5 - Très haute"			
"User story"	"Modification"	"À faire"	"À faire"	"Agriculteur"	"pouvoir déclarer qu'une parcelle m'appartient (et modifier si je me suis trompé)"	"d'avoir la liste de mes parcelles pour les sélectionner ultérieurement"	"5 - Très haute"			
